%!PS-Adobe-3.0 EPSF-3.0
%%Creator: cairo 1.13.1 (http://cairographics.org)
%%CreationDate: Mon May  9 22:12:06 2016
%%Pages: 1
%%DocumentData: Clean7Bit
%%LanguageLevel: 2
%%BoundingBox: 16 2 62 70
%%EndComments
%%BeginProlog
save
50 dict begin
/q { gsave } bind def
/Q { grestore } bind def
/cm { 6 array astore concat } bind def
/w { setlinewidth } bind def
/J { setlinecap } bind def
/j { setlinejoin } bind def
/M { setmiterlimit } bind def
/d { setdash } bind def
/m { moveto } bind def
/l { lineto } bind def
/c { curveto } bind def
/h { closepath } bind def
/re { exch dup neg 3 1 roll 5 3 roll moveto 0 rlineto
      0 exch rlineto 0 rlineto closepath } bind def
/S { stroke } bind def
/f { fill } bind def
/f* { eofill } bind def
/n { newpath } bind def
/W { clip } bind def
/W* { eoclip } bind def
/BT { } bind def
/ET { } bind def
/pdfmark where { pop globaldict /?pdfmark /exec load put }
    { globaldict begin /?pdfmark /pop load def /pdfmark
    /cleartomark load def end } ifelse
/BDC { mark 3 1 roll /BDC pdfmark } bind def
/EMC { mark /EMC pdfmark } bind def
/cairo_store_point { /cairo_point_y exch def /cairo_point_x exch def } def
/Tj { show currentpoint cairo_store_point } bind def
/TJ {
  {
    dup
    type /stringtype eq
    { show } { -0.001 mul 0 cairo_font_matrix dtransform rmoveto } ifelse
  } forall
  currentpoint cairo_store_point
} bind def
/cairo_selectfont { cairo_font_matrix aload pop pop pop 0 0 6 array astore
    cairo_font exch selectfont cairo_point_x cairo_point_y moveto } bind def
/Tf { pop /cairo_font exch def /cairo_font_matrix where
      { pop cairo_selectfont } if } bind def
/Td { matrix translate cairo_font_matrix matrix concatmatrix dup
      /cairo_font_matrix exch def dup 4 get exch 5 get cairo_store_point
      /cairo_font where { pop cairo_selectfont } if } bind def
/Tm { 2 copy 8 2 roll 6 array astore /cairo_font_matrix exch def
      cairo_store_point /cairo_font where { pop cairo_selectfont } if } bind def
/g { setgray } bind def
/rg { setrgbcolor } bind def
/d1 { setcachedevice } bind def
%%EndProlog
%%BeginSetup
%%EndSetup
%%Page: 1 1
%%BeginPageSetup
%%PageBoundingBox: 16 2 62 70
%%EndPageSetup
q 16 2 46 68 rectclip q
1 g
18.426 66.367 40.602 -57.078 re f
0 g
16.863 69.238 m 16.863 2.84 l 61.664 2.84 l 61.664 69.238 l h
46.625 15.238 m 21.824 15.238 l 21.824 16.602 l 46.547 16.602 l 46.547 
15.238 l h
46.625 43.16 m 46.625 41.801 l 21.824 41.801 l 21.824 43.16 l h
21.824 50.68 m 21.824 52.039 l 46.547 52.039 l 46.547 50.68 l h
46.625 34.281 m 46.625 32.922 l 21.824 32.922 l 21.824 34.281 l h
46.863 24.121 m 22.145 24.121 l 22.145 25.48 l 46.863 25.48 l h
56.387 13.078 m 50.707 13.078 l 50.707 18.762 l 56.387 18.762 l h
56.387 21.961 m 50.707 21.961 l 50.707 27.641 l 56.387 27.641 l h
56.387 30.762 m 50.707 30.762 l 50.707 36.441 l 56.387 36.441 l h
56.387 39.641 m 50.707 39.641 l 50.707 45.32 l 56.387 45.32 l h
56.387 48.52 m 50.707 48.52 l 50.707 54.199 l 56.387 54.199 l h
57.824 60.84 m 20.707 60.84 l 20.707 62.922 l 57.746 62.922 l 57.746 60.84
 l h
57.824 60.84 m f
Q Q
showpage
%%Trailer
end restore
%%EOF
