%!PS-Adobe-3.0 EPSF-3.0
%%Creator: cairo 1.13.1 (http://cairographics.org)
%%CreationDate: Mon May  9 22:15:24 2016
%%Pages: 1
%%DocumentData: Clean7Bit
%%LanguageLevel: 2
%%BoundingBox: 7 11 75 79
%%EndComments
%%BeginProlog
save
50 dict begin
/q { gsave } bind def
/Q { grestore } bind def
/cm { 6 array astore concat } bind def
/w { setlinewidth } bind def
/J { setlinecap } bind def
/j { setlinejoin } bind def
/M { setmiterlimit } bind def
/d { setdash } bind def
/m { moveto } bind def
/l { lineto } bind def
/c { curveto } bind def
/h { closepath } bind def
/re { exch dup neg 3 1 roll 5 3 roll moveto 0 rlineto
      0 exch rlineto 0 rlineto closepath } bind def
/S { stroke } bind def
/f { fill } bind def
/f* { eofill } bind def
/n { newpath } bind def
/W { clip } bind def
/W* { eoclip } bind def
/BT { } bind def
/ET { } bind def
/pdfmark where { pop globaldict /?pdfmark /exec load put }
    { globaldict begin /?pdfmark /pop load def /pdfmark
    /cleartomark load def end } ifelse
/BDC { mark 3 1 roll /BDC pdfmark } bind def
/EMC { mark /EMC pdfmark } bind def
/cairo_store_point { /cairo_point_y exch def /cairo_point_x exch def } def
/Tj { show currentpoint cairo_store_point } bind def
/TJ {
  {
    dup
    type /stringtype eq
    { show } { -0.001 mul 0 cairo_font_matrix dtransform rmoveto } ifelse
  } forall
  currentpoint cairo_store_point
} bind def
/cairo_selectfont { cairo_font_matrix aload pop pop pop 0 0 6 array astore
    cairo_font exch selectfont cairo_point_x cairo_point_y moveto } bind def
/Tf { pop /cairo_font exch def /cairo_font_matrix where
      { pop cairo_selectfont } if } bind def
/Td { matrix translate cairo_font_matrix matrix concatmatrix dup
      /cairo_font_matrix exch def dup 4 get exch 5 get cairo_store_point
      /cairo_font where { pop cairo_selectfont } if } bind def
/Tm { 2 copy 8 2 roll 6 array astore /cairo_font_matrix exch def
      cairo_store_point /cairo_font where { pop cairo_selectfont } if } bind def
/g { setgray } bind def
/rg { setrgbcolor } bind def
/d1 { setcachedevice } bind def
%%EndProlog
%%BeginSetup
%%EndSetup
%%Page: 1 1
%%BeginPageSetup
%%PageBoundingBox: 7 11 75 79
%%EndPageSetup
q 7 11 68 68 rectclip q
1 g
58.73 46.527 m 58.73 37.258 51.215 29.746 41.949 29.746 c 32.684 29.746
 25.168 37.258 25.168 46.527 c 25.168 55.793 32.684 63.305 41.949 63.305
 c 51.215 63.305 58.73 55.793 58.73 46.527 c h
58.73 46.527 m f
0 g
44.418 11.898 m 37.496 11.898 l 35.688 11.898 34.164 13.191 33.871 14.973
 c 32.707 22.023 l 31.922 22.309 31.145 22.629 30.383 22.992 c 24.574 18.828
 l 23.148 17.805 21.078 17.977 19.84 19.211 c 14.941 24.109 l 13.664 25.391
 13.5 27.379 14.555 28.848 c 18.719 34.652 l 18.359 35.418 18.035 36.191
 17.754 36.98 c 10.703 38.145 l 8.918 38.441 7.629 39.965 7.629 41.766 c
 7.629 48.688 l 7.629 50.496 8.922 52.023 10.703 52.316 c 17.754 53.477 
l 18.035 54.262 18.355 55.039 18.719 55.801 c 14.551 61.609 l 13.504 63.078
 13.664 65.07 14.938 66.348 c 19.836 71.242 l 21.074 72.48 23.148 72.652
 24.574 71.629 c 30.383 67.465 l 31.145 67.828 31.922 68.148 32.707 68.43
 c 33.871 75.484 l 34.164 77.266 35.688 78.559 37.492 78.559 c 44.418 78.559
 l 46.223 78.559 47.746 77.266 48.039 75.484 c 49.203 68.43 l 49.988 68.148
 50.766 67.828 51.527 67.465 c 57.34 71.629 l 58.766 72.652 60.84 72.48 
62.078 71.238 c 66.973 66.348 l 68.246 65.074 68.41 63.082 67.359 61.613
 c 63.191 55.801 l 63.555 55.035 63.879 54.258 64.156 53.477 c 71.211 52.312
 l 72.992 52.023 74.289 50.5 74.289 48.691 c 74.289 41.77 l 74.289 39.957
 72.992 38.434 71.207 38.145 c 64.16 36.98 l 63.879 36.195 63.559 35.418
 63.191 34.656 c 67.359 28.848 l 68.414 27.375 68.25 25.387 66.973 24.109
 c 62.078 19.215 l 61.387 18.523 60.461 18.141 59.477 18.141 c 58.707 18.141
 57.969 18.375 57.34 18.824 c 51.527 22.992 l 50.766 22.629 49.992 22.309
 49.207 22.027 c 48.043 14.973 l 47.75 13.191 46.223 11.898 44.418 11.898
 c h
40.957 31.152 m 33.195 31.152 26.883 37.469 26.883 45.227 c 26.883 52.984
 33.195 59.301 40.957 59.301 c 48.719 59.301 55.031 52.984 55.031 45.227
 c 55.031 37.469 48.719 31.152 40.957 31.152 c h
40.957 53.859 m 36.199 53.859 32.324 49.988 32.324 45.23 c 32.324 40.473
 36.199 36.602 40.957 36.602 c 45.715 36.602 49.586 40.473 49.586 45.23 
c 49.586 49.988 45.715 53.859 40.957 53.859 c h
40.957 53.859 m f*
Q Q
showpage
%%Trailer
end restore
%%EOF
