%!PS-Adobe-3.0 EPSF-3.0
%%Creator: cairo 1.13.1 (http://cairographics.org)
%%CreationDate: Mon May  9 22:19:55 2016
%%Pages: 1
%%DocumentData: Clean7Bit
%%LanguageLevel: 2
%%BoundingBox: 11 16 73 75
%%EndComments
%%BeginProlog
save
50 dict begin
/q { gsave } bind def
/Q { grestore } bind def
/cm { 6 array astore concat } bind def
/w { setlinewidth } bind def
/J { setlinecap } bind def
/j { setlinejoin } bind def
/M { setmiterlimit } bind def
/d { setdash } bind def
/m { moveto } bind def
/l { lineto } bind def
/c { curveto } bind def
/h { closepath } bind def
/re { exch dup neg 3 1 roll 5 3 roll moveto 0 rlineto
      0 exch rlineto 0 rlineto closepath } bind def
/S { stroke } bind def
/f { fill } bind def
/f* { eofill } bind def
/n { newpath } bind def
/W { clip } bind def
/W* { eoclip } bind def
/BT { } bind def
/ET { } bind def
/pdfmark where { pop globaldict /?pdfmark /exec load put }
    { globaldict begin /?pdfmark /pop load def /pdfmark
    /cleartomark load def end } ifelse
/BDC { mark 3 1 roll /BDC pdfmark } bind def
/EMC { mark /EMC pdfmark } bind def
/cairo_store_point { /cairo_point_y exch def /cairo_point_x exch def } def
/Tj { show currentpoint cairo_store_point } bind def
/TJ {
  {
    dup
    type /stringtype eq
    { show } { -0.001 mul 0 cairo_font_matrix dtransform rmoveto } ifelse
  } forall
  currentpoint cairo_store_point
} bind def
/cairo_selectfont { cairo_font_matrix aload pop pop pop 0 0 6 array astore
    cairo_font exch selectfont cairo_point_x cairo_point_y moveto } bind def
/Tf { pop /cairo_font exch def /cairo_font_matrix where
      { pop cairo_selectfont } if } bind def
/Td { matrix translate cairo_font_matrix matrix concatmatrix dup
      /cairo_font_matrix exch def dup 4 get exch 5 get cairo_store_point
      /cairo_font where { pop cairo_selectfont } if } bind def
/Tm { 2 copy 8 2 roll 6 array astore /cairo_font_matrix exch def
      cairo_store_point /cairo_font where { pop cairo_selectfont } if } bind def
/g { setgray } bind def
/rg { setrgbcolor } bind def
/d1 { setcachedevice } bind def
%%EndProlog
%%BeginSetup
%%EndSetup
%%Page: 1 1
%%BeginPageSetup
%%PageBoundingBox: 11 16 73 75
%%EndPageSetup
q 11 16 62 59 rectclip q
0 g
65.559 74.98 m 18.418 74.98 l 14.332 74.98 11.02 71.668 11.02 67.582 c 
11.02 38.914 l 11.02 34.824 14.332 31.516 18.418 31.516 c 24.762 31.516 
l 24.762 19 l 24.762 17.457 26.016 16.207 27.559 16.207 c 28.344 16.207 
29.059 16.531 29.562 17.055 c 29.566 17.055 l 43.984 31.516 l 65.559 31.516
 l 69.648 31.516 72.961 34.824 72.961 38.914 c 72.961 67.582 l 72.961 71.668
 69.645 74.98 65.559 74.98 c h
27.984 49.641 m 25.938 49.641 24.273 51.305 24.273 53.352 c 24.273 55.402
 25.938 57.062 27.984 57.062 c 30.031 57.062 31.695 55.402 31.695 53.352
 c 31.695 51.305 30.031 49.641 27.984 49.641 c h
42.434 49.641 m 40.387 49.641 38.727 51.305 38.727 53.352 c 38.727 55.402
 40.387 57.062 42.434 57.062 c 44.484 57.062 46.145 55.402 46.145 53.352
 c 46.145 51.305 44.484 49.641 42.434 49.641 c h
57.094 49.641 m 55.047 49.641 53.383 51.305 53.383 53.352 c 53.383 55.402
 55.047 57.062 57.094 57.062 c 59.141 57.062 60.805 55.402 60.805 53.352
 c 60.805 51.305 59.141 49.641 57.094 49.641 c h
57.094 49.641 m f
Q Q
showpage
%%Trailer
end restore
%%EOF
