%!PS-Adobe-3.0 EPSF-3.0
%%Creator: cairo 1.13.1 (http://cairographics.org)
%%CreationDate: Mon May  9 19:10:23 2016
%%Pages: 1
%%DocumentData: Clean7Bit
%%LanguageLevel: 2
%%BoundingBox: 5 6 75 79
%%EndComments
%%BeginProlog
save
50 dict begin
/q { gsave } bind def
/Q { grestore } bind def
/cm { 6 array astore concat } bind def
/w { setlinewidth } bind def
/J { setlinecap } bind def
/j { setlinejoin } bind def
/M { setmiterlimit } bind def
/d { setdash } bind def
/m { moveto } bind def
/l { lineto } bind def
/c { curveto } bind def
/h { closepath } bind def
/re { exch dup neg 3 1 roll 5 3 roll moveto 0 rlineto
      0 exch rlineto 0 rlineto closepath } bind def
/S { stroke } bind def
/f { fill } bind def
/f* { eofill } bind def
/n { newpath } bind def
/W { clip } bind def
/W* { eoclip } bind def
/BT { } bind def
/ET { } bind def
/pdfmark where { pop globaldict /?pdfmark /exec load put }
    { globaldict begin /?pdfmark /pop load def /pdfmark
    /cleartomark load def end } ifelse
/BDC { mark 3 1 roll /BDC pdfmark } bind def
/EMC { mark /EMC pdfmark } bind def
/cairo_store_point { /cairo_point_y exch def /cairo_point_x exch def } def
/Tj { show currentpoint cairo_store_point } bind def
/TJ {
  {
    dup
    type /stringtype eq
    { show } { -0.001 mul 0 cairo_font_matrix dtransform rmoveto } ifelse
  } forall
  currentpoint cairo_store_point
} bind def
/cairo_selectfont { cairo_font_matrix aload pop pop pop 0 0 6 array astore
    cairo_font exch selectfont cairo_point_x cairo_point_y moveto } bind def
/Tf { pop /cairo_font exch def /cairo_font_matrix where
      { pop cairo_selectfont } if } bind def
/Td { matrix translate cairo_font_matrix matrix concatmatrix dup
      /cairo_font_matrix exch def dup 4 get exch 5 get cairo_store_point
      /cairo_font where { pop cairo_selectfont } if } bind def
/Tm { 2 copy 8 2 roll 6 array astore /cairo_font_matrix exch def
      cairo_store_point /cairo_font where { pop cairo_selectfont } if } bind def
/g { setgray } bind def
/rg { setrgbcolor } bind def
/d1 { setcachedevice } bind def
%%EndProlog
%%BeginSetup
%%EndSetup
%%Page: 1 1
%%BeginPageSetup
%%PageBoundingBox: 5 6 75 79
%%EndPageSetup
q 5 6 70 73 rectclip q
1 g
9.012 52.219 m 8.719 52.008 10.27 50.906 10.402 50.828 c 15.355 49.434 
21.578 47.934 26.027 45.301 c 28.949 43.566 31.082 40.793 34.777 39.609 
c 35.164 39.988 35.234 40.914 35.434 41.441 c 35.473 42.031 36.027 43.191
 35.164 43.457 c 30.312 46.461 25.301 49.352 19.695 50.594 c 17.043 51.223
 11.73 51.996 9.012 52.219 c h
9.012 52.219 m f
71.816 73.012 m 67.301 71.129 62.559 69.012 58.719 66.066 c 52.328 61.18
 47.781 56.328 43.102 49.973 c 41.887 49.098 43.395 46.445 44.164 45.844
 c 44.84 45.562 46.512 43.875 46.922 45.164 c 53.297 54.324 55.523 58.117
 61.809 63.57 c 65.152 66.609 68.125 70.398 71.91 72.902 c 71.953 72.969
 71.883 73.027 71.816 73.012 c h
71.816 73.012 m f
0 g
61.578 42.535 m 53.223 41.602 48.211 43.484 45.93 44.711 c 45.945 44.797
 45.957 44.863 45.961 44.91 c 46.336 45.594 51.453 54.91 56.047 59.996 c
 63.172 67.891 70.699 72.297 70.699 72.297 c 70.699 72.297 62.871 69.246
 55.141 62.102 c 49.516 56.906 43.129 47.219 43.129 47.219 c 45.887 44.914
 l 45.863 44.879 45.84 44.836 45.809 44.773 c 45.848 44.754 45.891 44.734
 45.93 44.711 c 45.691 43.477 44.203 38.168 43.973 32.207 c 43.641 23.691
 45.035 14.168 45.188 13.133 c 45.199 13.098 45.223 13.066 45.223 13.031
 c 45.223 12.449 43.625 11.98 41.652 11.98 c 39.68 11.98 38.082 12.449 38.082
 13.031 c 38.082 13.062 38.105 13.09 38.113 13.121 c 38.27 13.805 39.93 
21.293 39.223 27.996 c 37.133 47.758 33.652 36.914 24.176 34 c 13.051 30.582
 7.293 46.641 5.18 55.66 c 14.469 50.41 25.734 64.918 33.066 52.359 c 35.785
 47.707 35.93 44.582 35.648 42.883 c 37.242 41.621 38.777 40.098 39.965 
38.359 c 39.969 38.391 39.957 38.422 39.961 38.453 c 40.387 41.559 41.598
 44.59 43.035 47.27 c 41.805 49.18 40.348 53.035 41.203 60.098 c 43.508 
79.152 64.742 67.496 73.246 78.727 c 75.402 66.699 76.836 44.23 61.578 42.535
 c h
24.094 48.738 m 16.867 51.277 9.316 51.766 9.316 51.766 c 9.316 51.766 
16.656 50.363 23.656 47.043 c 28.996 44.512 34.793 39.578 34.793 39.578 
c 35.602 42.824 l 35.602 42.824 29.656 46.781 24.094 48.738 c h
37.676 19.305 m 37.32 15.637 36.254 12.773 36.156 12.363 c 36.148 12.332
 36.125 12.305 36.125 12.273 c 36.125 11.695 38.996 11.086 41.066 11.086
 c 43.133 11.086 47.059 11.801 47.059 12.383 c 47.059 12.418 47.031 12.449
 47.02 12.484 c 46.938 13.012 46.117 15.738 45.773 19.41 c 60.578 19.086
 70.309 16.227 70.309 12.746 c 70.309 9.047 57.242 6.047 41.121 6.047 c 
25 6.047 11.934 9.047 11.934 12.746 c 11.934 16.238 22.801 18.996 37.676
 19.305 c h
37.676 19.305 m f*
Q Q
showpage
%%Trailer
end restore
%%EOF
