%!PS-Adobe-3.0 EPSF-3.0
%%Creator: cairo 1.13.1 (http://cairographics.org)
%%CreationDate: Mon May  9 18:54:18 2016
%%Pages: 1
%%DocumentData: Clean7Bit
%%LanguageLevel: 2
%%BoundingBox: 3 0 79 80
%%EndComments
%%BeginProlog
save
50 dict begin
/q { gsave } bind def
/Q { grestore } bind def
/cm { 6 array astore concat } bind def
/w { setlinewidth } bind def
/J { setlinecap } bind def
/j { setlinejoin } bind def
/M { setmiterlimit } bind def
/d { setdash } bind def
/m { moveto } bind def
/l { lineto } bind def
/c { curveto } bind def
/h { closepath } bind def
/re { exch dup neg 3 1 roll 5 3 roll moveto 0 rlineto
      0 exch rlineto 0 rlineto closepath } bind def
/S { stroke } bind def
/f { fill } bind def
/f* { eofill } bind def
/n { newpath } bind def
/W { clip } bind def
/W* { eoclip } bind def
/BT { } bind def
/ET { } bind def
/pdfmark where { pop globaldict /?pdfmark /exec load put }
    { globaldict begin /?pdfmark /pop load def /pdfmark
    /cleartomark load def end } ifelse
/BDC { mark 3 1 roll /BDC pdfmark } bind def
/EMC { mark /EMC pdfmark } bind def
/cairo_store_point { /cairo_point_y exch def /cairo_point_x exch def } def
/Tj { show currentpoint cairo_store_point } bind def
/TJ {
  {
    dup
    type /stringtype eq
    { show } { -0.001 mul 0 cairo_font_matrix dtransform rmoveto } ifelse
  } forall
  currentpoint cairo_store_point
} bind def
/cairo_selectfont { cairo_font_matrix aload pop pop pop 0 0 6 array astore
    cairo_font exch selectfont cairo_point_x cairo_point_y moveto } bind def
/Tf { pop /cairo_font exch def /cairo_font_matrix where
      { pop cairo_selectfont } if } bind def
/Td { matrix translate cairo_font_matrix matrix concatmatrix dup
      /cairo_font_matrix exch def dup 4 get exch 5 get cairo_store_point
      /cairo_font where { pop cairo_selectfont } if } bind def
/Tm { 2 copy 8 2 roll 6 array astore /cairo_font_matrix exch def
      cairo_store_point /cairo_font where { pop cairo_selectfont } if } bind def
/g { setgray } bind def
/rg { setrgbcolor } bind def
/d1 { setcachedevice } bind def
%%EndProlog
%%BeginSetup
%%EndSetup
%%Page: 1 1
%%BeginPageSetup
%%PageBoundingBox: 3 0 79 80
%%EndPageSetup
q 3 0 76 80 rectclip q
0 g
61.488 71.742 m 61.781 71.867 62.094 71.945 62.426 71.977 c 64.188 72.148
 65.754 70.887 65.93 69.16 c 66.105 67.434 64.824 65.895 63.062 65.727 c
 61.945 65.617 60.91 66.09 60.254 66.887 c 59.367 66.16 58.238 63.785 56.453
 66.992 c 58.73 65.215 58.652 70.781 61.488 71.742 c h
61.488 71.742 m f
25.324 62.211 m 25.215 63.074 24.457 63.727 23.562 63.727 c 21.781 63.727
 l 19.344 61.727 l 16.902 63.734 l 14.816 63.734 l 13.898 63.734 13.129 
63.055 13.047 62.16 c 12.199 53.117 l 26.488 53.117 l h
25.324 62.211 m f
9.047 49.949 m 9.34 50.07 9.652 50.152 9.984 50.184 c 11.742 50.352 13.312
 49.094 13.488 47.367 c 13.664 45.641 12.379 44.102 10.621 43.93 c 9.504
 43.824 8.465 44.293 7.812 45.094 c 6.922 44.363 5.793 41.988 4.012 45.195
 c 6.289 43.418 6.211 48.988 9.047 49.949 c h
9.047 49.949 m f
16.457 41.344 m 16.348 42.207 15.594 42.855 14.695 42.859 c 12.914 42.859
 l 10.48 40.859 l 8.039 42.863 l 5.953 42.867 l 5.035 42.867 4.266 42.184
 4.184 41.293 c 3.332 32.25 l 17.621 32.25 l h
16.457 41.344 m f
60.855 29.48 m 61.148 29.602 61.465 29.684 61.793 29.715 c 63.555 29.887
 65.121 28.625 65.297 26.898 c 65.473 25.172 64.191 23.633 62.43 23.465 
c 61.316 23.355 60.277 23.828 59.621 24.625 c 58.734 23.898 57.605 21.52
 55.824 24.73 c 58.102 22.953 58.02 28.52 60.855 29.48 c h
60.855 29.48 m f
25.883 19.949 m 25.77 20.812 25.016 21.461 24.121 21.465 c 22.34 21.465
 l 19.902 19.465 l 17.461 21.469 l 15.375 21.473 l 14.457 21.473 13.688 
20.789 13.605 19.898 c 12.758 10.855 l 27.051 10.855 l h
25.883 19.949 m f
40.105 18.551 m 40.395 18.672 40.711 18.754 41.043 18.785 c 42.801 18.957
 44.371 17.695 44.547 15.969 c 44.723 14.242 43.438 12.703 41.68 12.535 
c 40.562 12.426 39.523 12.898 38.871 13.695 c 37.98 12.969 36.852 10.59 
35.07 13.801 c 37.348 12.023 37.27 17.59 40.105 18.551 c h
40.105 18.551 m f
47.516 9.945 m 47.406 10.809 46.648 11.461 45.754 11.461 c 43.973 11.461
 l 41.539 9.461 l 39.098 11.469 l 37.012 11.469 l 36.094 11.469 35.324 10.789
 35.242 9.895 c 34.395 0.852 l 48.684 0.852 l h
47.516 9.945 m f
39.535 55.605 m 42.27 55.602 l 43.109 52.09 l 43.289 51.332 l 44.062 51.141
 l 45.125 50.871 46.156 50.461 47.125 49.914 c 47.805 49.531 l 48.473 49.934
 l 51.602 51.82 l 53.531 49.93 l 51.617 46.93 l 51.191 46.27 l 51.598 45.598
 l 52.176 44.645 52.617 43.621 52.902 42.559 c 53.105 41.812 l 53.875 41.637
 l 57.383 40.828 l 57.379 38.164 l 53.887 37.371 l 53.109 37.195 l 52.91
 36.445 l 52.625 35.375 52.18 34.344 51.594 33.379 c 51.188 32.711 l 51.609
 32.051 l 53.496 29.074 l 51.559 27.191 l 48.492 29.051 l 47.82 29.461 l
 47.133 29.074 l 46.164 28.527 45.113 28.109 44.008 27.836 c 43.234 27.645
 l 43.051 26.887 l 42.215 23.438 l 39.48 23.441 l 38.645 26.938 l 38.469
 27.684 l 37.707 27.883 l 36.641 28.168 35.617 28.59 34.672 29.137 c 33.984
 29.531 l 33.305 29.125 l 30.148 27.223 l 28.219 29.109 l 30.203 32.219 
l 30.617 32.871 l 30.23 33.535 l 29.691 34.453 29.277 35.434 29.008 36.441
 c 28.809 37.191 l 28.035 37.367 l 24.363 38.215 l 24.367 40.879 l 28.062
 41.715 l 28.828 41.891 l 29.035 42.633 l 29.312 43.633 29.727 44.602 30.262
 45.508 c 30.656 46.172 l 30.242 46.824 l 28.246 49.969 l 30.184 51.852 
l 33.387 49.91 l 34.062 49.5 l 34.746 49.891 l 35.684 50.422 36.688 50.828
 37.727 51.105 c 38.488 51.305 l 38.668 52.051 l 39.535 55.605 l 40.961 
33.109 m 44.57 33.109 47.508 35.969 47.512 39.48 c 47.512 41.184 46.836 
42.789 45.602 43.996 c 44.367 45.203 42.723 45.867 40.961 45.871 c 37.355
 45.871 34.418 43.012 34.414 39.5 c 34.41 35.98 37.344 33.117 40.949 33.109
 c 40.961 33.109 l 38.492 56.891 m 37.391 52.344 l 36.219 52.035 35.113 
51.578 34.09 50.996 c 30 53.477 l 26.582 50.16 l 29.129 46.148 l 28.539 
45.16 28.078 44.094 27.766 42.965 c 23.055 41.898 l 23.047 37.195 l 27.738
 36.117 l 28.043 34.977 28.504 33.898 29.09 32.898 c 26.551 28.926 l 29.957
 25.598 l 34.004 28.031 l 35.043 27.43 36.172 26.965 37.367 26.645 c 38.438
 22.16 l 43.262 22.152 l 44.34 26.594 l 45.566 26.898 46.727 27.359 47.797
 27.965 c 51.754 25.566 l 55.172 28.883 l 52.734 32.727 l 53.371 33.773 
53.867 34.914 54.188 36.121 c 58.699 37.145 l 58.707 41.848 l 54.18 42.887
 l 53.855 44.082 53.367 45.215 52.734 46.254 c 55.203 50.117 l 51.797 53.449
 l 47.781 51.027 l 46.73 51.621 45.594 52.082 44.391 52.383 c 43.316 56.887
 l h
40.961 34.395 m 40.953 34.395 l 38.066 34.398 35.73 36.684 35.73 39.496
 c 35.738 42.309 38.078 44.582 40.961 44.586 c 40.969 44.586 l 43.859 44.582
 46.195 42.297 46.191 39.48 c 46.188 36.672 43.848 34.395 40.961 34.395 
c h
40.961 34.395 m f
45.012 75.902 m 45.012 74.176 43.574 72.773 41.801 72.773 c 40.031 72.773
 38.594 74.176 38.594 75.902 c 38.594 77.625 40.031 79.027 41.801 79.027
 c 43.574 79.027 45.012 77.625 45.012 75.902 c h
45.012 75.902 m f
48.859 61.094 m 47.691 70.188 l 47.582 71.055 46.828 71.703 45.934 71.703
 c 37.188 71.711 l 36.27 71.715 35.5 71.031 35.414 70.141 c 34.57 61.094
 l h
48.859 61.094 m f
22.668 67.941 m 22.668 66.215 21.23 64.812 19.457 64.812 c 17.688 64.812
 16.25 66.215 16.25 67.941 c 16.25 69.664 17.688 71.066 19.457 71.066 c 
21.23 71.066 22.668 69.664 22.668 67.941 c h
22.668 67.941 m f
69.855 53.133 m 68.688 62.227 l 68.578 63.094 67.824 63.742 66.93 63.742
 c 58.184 63.75 l 57.266 63.754 56.496 63.07 56.41 62.18 c 55.562 53.133
 l h
69.855 53.133 m f
74.402 47.074 m 74.402 45.348 72.965 43.945 71.191 43.945 c 69.422 43.945
 67.984 45.348 67.984 47.074 c 67.984 48.797 69.422 50.199 71.191 50.199
 c 72.965 50.199 74.402 48.797 74.402 47.074 c h
74.402 47.074 m f
78.25 32.266 m 77.082 41.359 l 76.973 42.223 76.219 42.875 75.324 42.875
 c 66.578 42.883 l 65.66 42.883 64.891 42.203 64.805 41.309 c 63.961 32.266
 l h
78.25 32.266 m f
22.91 25.527 m 22.91 23.801 21.473 22.402 19.703 22.402 c 17.93 22.402 
16.492 23.801 16.492 25.527 c 16.492 27.254 17.93 28.652 19.703 28.652 c
 21.473 28.652 22.91 27.254 22.91 25.527 c h
22.91 25.527 m f
69.383 11.414 m 68.219 20.508 l 68.109 21.375 67.352 22.023 66.457 22.023
 c 57.711 22.031 l 56.793 22.035 56.023 21.352 55.941 20.461 c 55.094 11.414
 l h
69.383 11.414 m f
Q Q
showpage
%%Trailer
end restore
%%EOF
