%!PS-Adobe-3.0 EPSF-3.0
%%Creator: cairo 1.13.1 (http://cairographics.org)
%%CreationDate: Mon May  9 22:28:20 2016
%%Pages: 1
%%DocumentData: Clean7Bit
%%LanguageLevel: 2
%%BoundingBox: 7 13 72 77
%%EndComments
%%BeginProlog
save
50 dict begin
/q { gsave } bind def
/Q { grestore } bind def
/cm { 6 array astore concat } bind def
/w { setlinewidth } bind def
/J { setlinecap } bind def
/j { setlinejoin } bind def
/M { setmiterlimit } bind def
/d { setdash } bind def
/m { moveto } bind def
/l { lineto } bind def
/c { curveto } bind def
/h { closepath } bind def
/re { exch dup neg 3 1 roll 5 3 roll moveto 0 rlineto
      0 exch rlineto 0 rlineto closepath } bind def
/S { stroke } bind def
/f { fill } bind def
/f* { eofill } bind def
/n { newpath } bind def
/W { clip } bind def
/W* { eoclip } bind def
/BT { } bind def
/ET { } bind def
/pdfmark where { pop globaldict /?pdfmark /exec load put }
    { globaldict begin /?pdfmark /pop load def /pdfmark
    /cleartomark load def end } ifelse
/BDC { mark 3 1 roll /BDC pdfmark } bind def
/EMC { mark /EMC pdfmark } bind def
/cairo_store_point { /cairo_point_y exch def /cairo_point_x exch def } def
/Tj { show currentpoint cairo_store_point } bind def
/TJ {
  {
    dup
    type /stringtype eq
    { show } { -0.001 mul 0 cairo_font_matrix dtransform rmoveto } ifelse
  } forall
  currentpoint cairo_store_point
} bind def
/cairo_selectfont { cairo_font_matrix aload pop pop pop 0 0 6 array astore
    cairo_font exch selectfont cairo_point_x cairo_point_y moveto } bind def
/Tf { pop /cairo_font exch def /cairo_font_matrix where
      { pop cairo_selectfont } if } bind def
/Td { matrix translate cairo_font_matrix matrix concatmatrix dup
      /cairo_font_matrix exch def dup 4 get exch 5 get cairo_store_point
      /cairo_font where { pop cairo_selectfont } if } bind def
/Tm { 2 copy 8 2 roll 6 array astore /cairo_font_matrix exch def
      cairo_store_point /cairo_font where { pop cairo_selectfont } if } bind def
/g { setgray } bind def
/rg { setrgbcolor } bind def
/d1 { setcachedevice } bind def
%%EndProlog
%%BeginSetup
%%EndSetup
%%Page: 1 1
%%BeginPageSetup
%%PageBoundingBox: 7 13 72 77
%%EndPageSetup
q 7 13 65 64 rectclip q
1 g
63.73 45.254 m 63.73 32.43 52.574 22.035 38.812 22.035 c 25.055 22.035 
13.898 32.43 13.898 45.254 c 13.898 58.078 25.055 68.473 38.812 68.473 c
 52.574 68.473 63.73 58.078 63.73 45.254 c h
63.73 45.254 m f
0 g
39.492 76.68 m 21.918 76.68 7.73 62.492 7.73 44.914 c 7.73 27.34 21.918
 13.152 39.492 13.152 c 57.066 13.152 71.254 27.34 71.254 44.914 c 71.254
 62.492 57.066 76.68 39.492 76.68 c h
56.359 40.961 m 43.445 40.961 l 43.445 28.117 l 43.445 25.93 41.68 24.164
 39.492 24.164 c 37.305 24.164 35.539 25.93 35.539 28.117 c 35.539 40.961
 l 22.621 40.961 l 20.434 40.961 18.668 42.727 18.668 44.914 c 18.668 47.102
 20.434 48.867 22.621 48.867 c 35.469 48.867 l 35.469 61.785 l 35.469 63.973
 37.234 65.738 39.422 65.738 c 41.609 65.738 43.375 63.973 43.375 61.785
 c 43.375 48.938 l 56.219 48.938 l 58.406 48.938 60.172 47.176 60.172 44.984
 c 60.172 42.797 58.551 40.961 56.359 40.961 c h
56.359 40.961 m f
Q Q
showpage
%%Trailer
end restore
%%EOF
