%!PS-Adobe-3.0 EPSF-3.0
%%Creator: cairo 1.13.1 (http://cairographics.org)
%%CreationDate: Mon May  9 20:32:43 2016
%%Pages: 1
%%DocumentData: Clean7Bit
%%LanguageLevel: 2
%%BoundingBox: 12 2 72 79
%%EndComments
%%BeginProlog
save
50 dict begin
/q { gsave } bind def
/Q { grestore } bind def
/cm { 6 array astore concat } bind def
/w { setlinewidth } bind def
/J { setlinecap } bind def
/j { setlinejoin } bind def
/M { setmiterlimit } bind def
/d { setdash } bind def
/m { moveto } bind def
/l { lineto } bind def
/c { curveto } bind def
/h { closepath } bind def
/re { exch dup neg 3 1 roll 5 3 roll moveto 0 rlineto
      0 exch rlineto 0 rlineto closepath } bind def
/S { stroke } bind def
/f { fill } bind def
/f* { eofill } bind def
/n { newpath } bind def
/W { clip } bind def
/W* { eoclip } bind def
/BT { } bind def
/ET { } bind def
/pdfmark where { pop globaldict /?pdfmark /exec load put }
    { globaldict begin /?pdfmark /pop load def /pdfmark
    /cleartomark load def end } ifelse
/BDC { mark 3 1 roll /BDC pdfmark } bind def
/EMC { mark /EMC pdfmark } bind def
/cairo_store_point { /cairo_point_y exch def /cairo_point_x exch def } def
/Tj { show currentpoint cairo_store_point } bind def
/TJ {
  {
    dup
    type /stringtype eq
    { show } { -0.001 mul 0 cairo_font_matrix dtransform rmoveto } ifelse
  } forall
  currentpoint cairo_store_point
} bind def
/cairo_selectfont { cairo_font_matrix aload pop pop pop 0 0 6 array astore
    cairo_font exch selectfont cairo_point_x cairo_point_y moveto } bind def
/Tf { pop /cairo_font exch def /cairo_font_matrix where
      { pop cairo_selectfont } if } bind def
/Td { matrix translate cairo_font_matrix matrix concatmatrix dup
      /cairo_font_matrix exch def dup 4 get exch 5 get cairo_store_point
      /cairo_font where { pop cairo_selectfont } if } bind def
/Tm { 2 copy 8 2 roll 6 array astore /cairo_font_matrix exch def
      cairo_store_point /cairo_font where { pop cairo_selectfont } if } bind def
/g { setgray } bind def
/rg { setrgbcolor } bind def
/d1 { setcachedevice } bind def
%%EndProlog
%%BeginSetup
%%EndSetup
%%Page: 1 1
%%BeginPageSetup
%%PageBoundingBox: 12 2 72 79
%%EndPageSetup
q 12 2 60 77 rectclip q
1 g
49.578 57.098 m 49.578 48.496 43.078 41.527 35.062 41.527 c 27.047 41.527
 20.551 48.496 20.551 57.098 c 20.551 65.699 27.047 72.668 35.062 72.668
 c 43.078 72.668 49.578 65.699 49.578 57.098 c h
49.578 57.098 m f
63.664 38.348 m 63.664 29.746 57.168 22.777 49.152 22.777 c 41.137 22.777
 34.641 29.746 34.641 38.348 c 34.641 46.949 41.137 53.918 49.152 53.918
 c 57.168 53.918 63.664 46.949 63.664 38.348 c h
63.664 38.348 m f
0 g
40.031 56.766 m 40.031 54.32 38.047 52.336 35.602 52.336 c 33.156 52.336
 31.172 54.32 31.172 56.766 c 31.172 59.215 33.156 61.199 35.602 61.199 
c 38.047 61.199 40.031 59.215 40.031 56.766 c h
40.031 56.766 m f
66.328 51.418 m 64.395 60.93 61.426 70.172 52.383 75.062 c 43.688 79.766
 32.18 79.887 23.934 74.129 c 10.047 64.43 9.492 42.133 17.59 28.609 c 18.145
 27.684 19.031 26.488 19.023 25.359 c 19.031 2.82 l 49.77 2.82 l 49.77 17.625
 l 59.125 16.332 64.141 19.625 64.141 19.625 c 64.738 32.762 l 71.484 33.746
 l 71.051 33.684 66.652 49.832 66.328 51.418 c h
38.656 47.348 m 37.867 43.41 l 33.141 43.41 l 32.352 47.348 l 28.891 49.348
 l 25.086 48.059 l 22.723 52.152 l 25.742 54.805 l 25.742 58.801 l 22.723
 61.453 l 25.086 65.547 l 28.891 64.258 l 32.352 66.258 l 33.141 70.125 
l 37.867 70.125 l 38.656 66.258 l 42.117 64.258 l 45.922 65.547 l 48.285
 61.453 l 45.266 58.801 l 45.461 54.965 l 48.48 52.312 l 46.117 48.219 l
 42.312 49.504 l h
58.383 32.816 m 55.859 33.672 l 53.434 32.238 l 52.91 29.625 l 49.773 29.625
 l 49.25 32.238 l 46.953 33.566 l 44.426 32.711 l 42.855 35.43 l 44.859 
37.188 l 44.859 39.84 l 42.855 41.602 l 44.426 44.316 l 46.953 43.465 l 
49.25 44.789 l 49.773 47.355 l 52.91 47.355 l 53.434 44.789 l 55.73 43.465
 l 58.254 44.316 l 59.824 41.602 l 57.82 39.84 l 57.949 37.293 l 59.953 
35.535 l h
58.383 32.816 m f
53.867 38.492 m 53.867 37.133 52.766 36.031 51.406 36.031 c 50.047 36.031
 48.945 37.133 48.945 38.492 c 48.945 39.852 50.047 40.953 51.406 40.953
 c 52.766 40.953 53.867 39.852 53.867 38.492 c h
53.867 38.492 m f
Q Q
showpage
%%Trailer
end restore
%%EOF
