<svg xmlns="http://www.w3.org/2000/svg" xmlns:xlink="http://www.w3.org/1999/xlink" version="1.1" x="0px" y="0px" viewBox="0 0 100 125" style="enable-background:new 0 0 100 100;" xml:space="preserve"><style type="text/css">
	.st0{fill:#231F20;}
	.st1{display:none;}
	.st2{display:inline;}
	.st3{display:none;fill:none;stroke:#000000;stroke-width:4;stroke-linecap:round;stroke-linejoin:round;stroke-miterlimit:10;}
	.st4{display:inline;fill:none;}
</style><path class="st0" d="M7.5,36.7h58.4v10.6H7.5V36.7z M7.5,20.8h58.4v10.6H7.5V20.8z M7.5,52.7h58.4v10.6H7.5V52.7z M7.5,68.6h58.4  v10.6H7.5V68.6z M71.3,52.7l10.6,15.9l10.6-15.9H71.3z M92.5,47.3L81.9,31.4L71.3,47.3H92.5z"/><text x="0" y="115" fill="#000000" font-size="5px" font-weight="bold" font-family="'Helvetica Neue', Helvetica, Arial-Unicode, Arial, Sans-serif">Created by Jamie Rothwell</text><text x="0" y="120" fill="#000000" font-size="5px" font-weight="bold" font-family="'Helvetica Neue', Helvetica, Arial-Unicode, Arial, Sans-serif">from the Noun Project</text></svg>